{
  "fonts": {
    "dest": "app/assets/fonts",
    "wp": "wp/assets/fonts",
    "tmp": ".tmp/assets/fonts",
    "src": "src/assets/fonts/"
  },
  "images": {
    "dest": "app/assets/images",
    "wp": "wp/assets/images",
    "tmp": ".tmp/assets/images",
    "src": "src/assets/images/"
  },
  "scripts": {
    "dest": "app/assets/scripts",
    "wp": "wp/assets/scripts",
    "tmp": ".tmp/assets/scripts",
    "src": "src/assets/scripts/"
  },
  "styles": {
    "cache": "styles",
    "dest": "app/assets/styles",
    "wp": "wp/assets/styles",
    "tmp": ".tmp/assets/styles",
    "src": "src/assets/styles/"
  },
  "views": {
    "cache": "views",
    "dest": "app",
    "wp": "wp",
    "tmp": ".tmp",
    "src": "src/views/"
  },
  "data": {
    "src": "src/data/"
  }
}
